Introduction to bulkreadr
…
read_excel_workbook()

read_excel_workbook() reads all the data from the sheets
of an Excel workbook and return an appended dataframe.

# path to the xls/xlsx file.

path <- system.file("extdata", "Diamonds.xlsx", package = "bulkreadr")

# read the sheets

read_excel_workbook(path = path)
#> # A tibble: 260 × 9
#>   carat color clarity depth table price     x     y     z
#>   <dbl> <chr> <chr>   <dbl> <dbl> <dbl> <dbl> <dbl> <dbl>
#> 1  2    I     SI1      65.9    60 13764  7.8   7.73  5.12
#> 2  0.7  H     SI1      65.2    58  2048  5.49  5.55  3.6 
#> 3  1.51 E     SI1      58.4    70 11102  7.55  7.39  4.36
#> 4  0.7  D     SI2      65.5    57  1806  5.56  5.43  3.6 
#> 5  0.35 F     VVS1     54.6    59  1011  4.85  4.79  2.63
#> # ℹ 255 more rows

read_excel_files_from_dir()

read_excel_files_from_dir() reads all Excel workbooks in
the "~/data" directory and returns an appended
dataframe.

# path to the directory containing the xls/xlsx files.

directory <- system.file("xlsxfolder",  package = "bulkreadr")

# import the workbooks

read_excel_files_from_dir(dir_path = directory)
#> # A tibble: 260 × 10
#>   cut   carat color clarity depth table price     x     y     z
#>   <chr> <dbl> <chr> <chr>   <dbl> <dbl> <dbl> <dbl> <dbl> <dbl>
#> 1 Fair   2    I     SI1      65.9    60 13764  7.8   7.73  5.12
#> 2 Fair   0.7  H     SI1      65.2    58  2048  5.49  5.55  3.6 
#> 3 Fair   1.51 E     SI1      58.4    70 11102  7.55  7.39  4.36
#> 4 Fair   0.7  D     SI2      65.5    57  1806  5.56  5.43  3.6 
#> 5 Fair   0.35 F     VVS1     54.6    59  1011  4.85  4.79  2.63
#> # ℹ 255 more rows
read_csv_files_from_dir()

read_csv_files_from_dir() reads all csv files from the
"~/data" directory and returns an appended dataframe. The
resulting dataframe will be in the same order as the CSV files in the
directory.

# path to the directory containing the CSV files.

directory <- system.file("csvfolder",  package = "bulkreadr")

# import the csv files

read_csv_files_from_dir(dir_path = directory)
#> # A tibble: 260 × 10
#>   cut   carat color clarity depth table price     x     y     z
#>   <chr> <dbl> <chr> <chr>   <dbl> <dbl> <dbl> <dbl> <dbl> <dbl>
#> 1 Fair   2    I     SI1      65.9    60 13764  7.8   7.73  5.12
#> 2 Fair   0.7  H     SI1      65.2    58  2048  5.49  5.55  3.6 
#> 3 Fair   1.51 E     SI1      58.4    70 11102  7.55  7.39  4.36
#> 4 Fair   0.7  D     SI2      65.5    57  1806  5.56  5.43  3.6 
#> 5 Fair   0.35 F     VVS1     54.6    59  1011  4.85  4.79  2.63
#> # ℹ 255 more rows
…
The read_gsheets() function imports data from multiple
sheets in a Google Sheets spreadsheet and appends the resulting
dataframes from each sheet together to create a single dataframe. This
function is a powerful tool for data analysis, as it allows you to
easily combine data from multiple sheets into a single dataset.

# Google Sheet ID or the link to the sheet

sheet_id <- "1izO0mHu3L9AMySQUXGDn9GPs1n-VwGFSEoAKGhqVQh0"

# read all the sheets

read_gsheets(ss = sheet_id)
#> # A tibble: 260 × 9
#>   carat color clarity depth table price     x     y     z
#>   <dbl> <chr> <chr>   <dbl> <dbl> <dbl> <dbl> <dbl> <dbl>
#> 1  2    I     SI1      65.9    60 13764  7.8   7.73  5.12
#> 2  0.7  H     SI1      65.2    58  2048  5.49  5.55  3.6 
#> 3  1.51 E     SI1      58.4    70 11102  7.55  7.39  4.36
#> 4  0.7  D     SI2      65.5    57  1806  5.56  5.43  3.6 
#> 5  0.35 F     VVS1     54.6    59  1011  4.85  4.79  2.63
#> # ℹ 255 more rows
