Importing & exporting bulk data
…
The read_excel_workbook() function reads all
sheets from a single Excel workbook and combines them into one
tidy data frame. This is ideal when you have multiple related sheets in
one file and want to work with them as a single table.

# Path to the Excel workbook bundled with the package
path <- system.file("extdata", "Diamonds.xlsx", package = "bulkreadr")

# Import every sheet into one data frame
df_all_sheets <- read_excel_workbook(path = path)

# View the result
df_all_sheets
#> # A tibble: 260 × 9
#>   carat color clarity depth table price     x     y     z
#>   <dbl> <chr> <chr>   <dbl> <dbl> <dbl> <dbl> <dbl> <dbl>
#> 1  2    I     SI1      65.9    60 13764  7.8   7.73  5.12
#> 2  0.7  H     SI1      65.2    58  2048  5.49  5.55  3.6 
#> 3  1.51 E     SI1      58.4    70 11102  7.55  7.39  4.36
#> 4  0.7  D     SI2      65.5    57  1806  5.56  5.43  3.6 
#> 5  0.35 F     VVS1     54.6    59  1011  4.85  4.79  2.63
#> # ℹ 255 more rows
…
read_csv_files_from_dir()

read_csv_files_from_dir() reads every .csv
in a specified directory and binds them row-wise into one data frame,
following the directory’s file order.

# Directory with CSV files
directory <- system.file("csvfolder", package = "bulkreadr")

# Import all CSVs at once
all_csv_data <- read_csv_files_from_dir(dir_path = directory)

# View the result
all_csv_data
#> # A tibble: 260 × 10
#>   cut   carat color clarity depth table price     x     y     z
#>   <chr> <dbl> <chr> <chr>   <dbl> <dbl> <dbl> <dbl> <dbl> <dbl>
#> 1 Fair   2    I     SI1      65.9    60 13764  7.8   7.73  5.12
#> 2 Fair   0.7  H     SI1      65.2    58  2048  5.49  5.55  3.6 
#> 3 Fair   1.51 E     SI1      58.4    70 11102  7.55  7.39  4.36
#> 4 Fair   0.7  D     SI2      65.5    57  1806  5.56  5.43  3.6 
#> 5 Fair   0.35 F     VVS1     54.6    59  1011  4.85  4.79  2.63
#> # ℹ 255 more rows
…
